vues\Menu$2.class
facadeCreaFilm\GenreNotFoundException.class
modeleCreaFilm\Film.class
pnt\MonApplication.class
controleur\Controleur.class
vues\Ajout$1.class
vues\TousLesFilms$1.class
facadeCreaFilm\FacadeScreenImpl.class
module-info.class
vues\Vue.class
vues\TousLesFilms.class
vues\VueInteractive.class
modeleCreaFilm\GenreFilm.class
vues\Menu$1.class
facadeCreaFilm\NomFilmDejaExistantException.class
vues\Menu.class
facadeCreaFilm\FacadeScreen.class
vues\Ajout.class
