actions\ConfirmationPari.class
actions\Register.class
facade\exceptions\MatchClosException.class
facade\exceptions\UtilisateurNonAdminException.class
modele\Pari.class
modele\Match.class
facade\exceptions\InformationsSaisiesIncoherentesException.class
modele\Utilisateur.class
facade\exceptions\OperationNonAuthoriseeException.class
facade\exceptions\MontantNegatifOuNulException.class
actions\ParisOuverts.class
actions\Annuler.class
facade\exceptions\ResultatImpossibleException.class
actions\Parier.class
facade\FacadeParisStaticImpl.class
actions\MesParis.class
actions\Connexion.class
facade\FacadeParis.class
facade\exceptions\UtilisateurDejaConnecteException.class
actions\Deconnexion.class
