C:\Users\Bastien\OneDrive\Documents\prog_n_tier\td-struts-exercice2\pelstruts\src\main\java\facade\exceptions\MontantNegatifOuNulException.java
C:\Users\Bastien\OneDrive\Documents\prog_n_tier\td-struts-exercice2\pelstruts\src\main\java\actions\Annuler.java
C:\Users\Bastien\OneDrive\Documents\prog_n_tier\td-struts-exercice2\pelstruts\src\main\java\facade\exceptions\UtilisateurDejaConnecteException.java
C:\Users\Bastien\OneDrive\Documents\prog_n_tier\td-struts-exercice2\pelstruts\src\main\java\actions\Deconnexion.java
C:\Users\Bastien\OneDrive\Documents\prog_n_tier\td-struts-exercice2\pelstruts\src\main\java\facade\exceptions\MatchClosException.java
C:\Users\Bastien\OneDrive\Documents\prog_n_tier\td-struts-exercice2\pelstruts\src\main\java\actions\ConfirmationPari.java
C:\Users\Bastien\OneDrive\Documents\prog_n_tier\td-struts-exercice2\pelstruts\src\main\java\modele\Match.java
C:\Users\Bastien\OneDrive\Documents\prog_n_tier\td-struts-exercice2\pelstruts\src\main\java\facade\exceptions\OperationNonAuthoriseeException.java
C:\Users\Bastien\OneDrive\Documents\prog_n_tier\td-struts-exercice2\pelstruts\src\main\java\actions\Connexion.java
C:\Users\Bastien\OneDrive\Documents\prog_n_tier\td-struts-exercice2\pelstruts\src\main\java\actions\MesParis.java
C:\Users\Bastien\OneDrive\Documents\prog_n_tier\td-struts-exercice2\pelstruts\src\main\java\facade\FacadeParis.java
C:\Users\Bastien\OneDrive\Documents\prog_n_tier\td-struts-exercice2\pelstruts\src\main\java\facade\exceptions\ResultatImpossibleException.java
C:\Users\Bastien\OneDrive\Documents\prog_n_tier\td-struts-exercice2\pelstruts\src\main\java\facade\FacadeParisStaticImpl.java
C:\Users\Bastien\OneDrive\Documents\prog_n_tier\td-struts-exercice2\pelstruts\src\main\java\actions\Register.java
C:\Users\Bastien\OneDrive\Documents\prog_n_tier\td-struts-exercice2\pelstruts\src\main\java\modele\Pari.java
C:\Users\Bastien\OneDrive\Documents\prog_n_tier\td-struts-exercice2\pelstruts\src\main\java\facade\exceptions\UtilisateurNonAdminException.java
C:\Users\Bastien\OneDrive\Documents\prog_n_tier\td-struts-exercice2\pelstruts\src\main\java\actions\Parier.java
C:\Users\Bastien\OneDrive\Documents\prog_n_tier\td-struts-exercice2\pelstruts\src\main\java\actions\ParisOuverts.java
C:\Users\Bastien\OneDrive\Documents\prog_n_tier\td-struts-exercice2\pelstruts\src\main\java\facade\exceptions\InformationsSaisiesIncoherentesException.java
C:\Users\Bastien\OneDrive\Documents\prog_n_tier\td-struts-exercice2\pelstruts\src\main\java\modele\Utilisateur.java
