facadeCreaFilm\GenreNotFoundException.class
modeleCreaFilm\Film.class
pnt\MonApplication.class
controleur\Controleur.class
facadeCreaFilm\FacadeScreenImpl.class
module-info.class
vues\TousLesFilms.class
vues\VueInteractive.class
modeleCreaFilm\GenreFilm.class
facadeCreaFilm\NomFilmDejaExistantException.class
vues\Menu.class
facadeCreaFilm\FacadeScreen.class
vues\Ajout.class
