C:\Users\Bastien\OneDrive\Documents\L3\Prog_N_tier\td-jfx-exercice1\src\main\java\facadeCreaFilm\FacadeScreen.java
C:\Users\Bastien\OneDrive\Documents\L3\Prog_N_tier\td-jfx-exercice1\src\main\java\modeleCreaFilm\GenreFilm.java
C:\Users\Bastien\OneDrive\Documents\L3\Prog_N_tier\td-jfx-exercice1\src\main\java\vues\TousLesFilms.java
C:\Users\Bastien\OneDrive\Documents\L3\Prog_N_tier\td-jfx-exercice1\src\main\java\modeleCreaFilm\Film.java
C:\Users\Bastien\OneDrive\Documents\L3\Prog_N_tier\td-jfx-exercice1\src\main\java\pnt\MonApplication.java
C:\Users\Bastien\OneDrive\Documents\L3\Prog_N_tier\td-jfx-exercice1\src\main\java\controleur\Controleur.java
C:\Users\Bastien\OneDrive\Documents\L3\Prog_N_tier\td-jfx-exercice1\src\main\java\facadeCreaFilm\FacadeScreenImpl.java
C:\Users\Bastien\OneDrive\Documents\L3\Prog_N_tier\td-jfx-exercice1\src\main\java\vues\VueInteractive.java
C:\Users\Bastien\OneDrive\Documents\L3\Prog_N_tier\td-jfx-exercice1\src\main\java\facadeCreaFilm\NomFilmDejaExistantException.java
C:\Users\Bastien\OneDrive\Documents\L3\Prog_N_tier\td-jfx-exercice1\src\main\java\facadeCreaFilm\GenreNotFoundException.java
C:\Users\Bastien\OneDrive\Documents\L3\Prog_N_tier\td-jfx-exercice1\src\main\java\vues\Menu.java
C:\Users\Bastien\OneDrive\Documents\L3\Prog_N_tier\td-jfx-exercice1\src\main\java\module-info.java
C:\Users\Bastien\OneDrive\Documents\L3\Prog_N_tier\td-jfx-exercice1\src\main\java\vues\Ajout.java
